<?xml version="1.0" encoding="UTF-8"?>
<session version="1.0">
<refactoring comment="Delete resource &apos;finalYearProjectversion3Sonar&apos;" deleteContents="false" description="Delete resource &apos;finalYearProjectversion3Sonar&apos;" element1="/finalYearProjectversion3Sonar" flags="7" id="org.eclipse.ltk.core.refactoring.delete.resources" resources="1" stamp="1429705851010"/>
</session>