<?xml version="1.0" encoding="UTF-8"?>
<session version="1.0">
<refactoring comment="Delete resource &apos;finalYearProjectversion3Gradle&apos;" deleteContents="true" description="Delete resource &apos;finalYearProjectversion3Gradle&apos;" element1="/finalYearProjectversion3Gradle" flags="7" id="org.eclipse.ltk.core.refactoring.delete.resources" resources="1" stamp="1426771369641"/>
</session>