<?xml version="1.0" encoding="UTF-8"?>
<testsuite name="finalYearProjecttest.mainTest" tests="1" skipped="0" failures="0" errors="0" timestamp="2015-04-27T18:14:10" hostname="ruairiwhelan-pc" time="0.016">
  <properties/>
  <testcase name="test" classname="finalYearProjecttest.mainTest" time="0.016"/>
  <system-out><![CDATA[]]></system-out>
  <system-err><![CDATA[]]></system-err>
</testsuite>
