<?xml version="1.0" encoding="UTF-8"?>
<testsuite name="finalYearProjecttest.buildingTest" tests="2" skipped="0" failures="0" errors="0" timestamp="2015-04-27T18:14:10" hostname="ruairiwhelan-pc" time="0.015">
  <properties/>
  <testcase name="testGetters" classname="finalYearProjecttest.buildingTest" time="0.015"/>
  <testcase name="testSetters" classname="finalYearProjecttest.buildingTest" time="0.0"/>
  <system-out><![CDATA[]]></system-out>
  <system-err><![CDATA[]]></system-err>
</testsuite>
